03-assignment_Rouch.utf8.md
…
4) Create a graph that shows average levels of monthly income by field of education, gender and job level (scale of 1-5, highest ranked employees are 5)

I created a new dataset, mi_sum3 that summarized average levels of monthly income by field of education, gender and job level. I arranged the data by average monthly income, from highest to lowest.

## Summarize monthly income by field of educcation, gender, and job level
mi_sum3<-at%>%
  group_by(EducationField,Gender,JobLevel)%>%
  summarize(mi_avg=mean(MonthlyIncome))%>%
  arrange(-mi_avg)

## Print the results
mi_sum3

## # A tibble: 58 x 4
## # Groups:   EducationField, Gender [12]
##    EducationField   Gender JobLevel mi_avg
##    <chr>            <chr>     <int>  <dbl>
##  1 Technical Degree Female        5 19744 
##  2 Other            Male          5 19443.
##  3 Human Resources  Male          5 19322 
##  4 Medical          Male          5 19251.
##  5 Technical Degree Male          5 19232 
##  6 Life Sciences    Male          5 19232.
##  7 Life Sciences    Female        5 19143 
##  8 Marketing        Female        5 19101.
##  9 Other            Female        5 19094 
## 10 Medical          Female        5 19032.
## #  with 48 more rows
…
